PWD /Users/anujdutt/Desktop/SUNY B /Semester 1/CSE574 - Intro to Machine Learning/Projects/Project 1.2/Report/Document
INPUT /usr/local/texlive/2018/texmf.cnf
INPUT /usr/local/texlive/2018/texmf-dist/web2c/texmf.cnf
